…
The dataset exits the variables such as week, day\_id, day, visit, activity\_count, wk\_wek, and has dimention of 50400 X 6, which contains 50400 observations.

``` r
week_order = c("Monday","Tuesday","Wednesday","Thursday","Friday","Saturday","Sunday")
df_total_ac = df_acc %>% group_by(week, day) %>% summarize(sum = sum(activity_count)) %>% ungroup() %>% mutate(
  wd_wk = ifelse(day == "Saturday" | day == "Sunday", "weekend", "weekday"),
  day = factor(day, levels = week_order)
  )
df_total_ac
```

    ## # A tibble: 35 x 4
    ##     week day           sum wd_wk  
    ##    <dbl> <fct>       <dbl> <chr>  
    ##  1     1 Friday    480543. weekday
    ##  2     1 Monday     78828. weekday
    ##  3     1 Saturday  376254  weekend
    ##  4     1 Sunday    631105  weekend
    ##  5     1 Thursday  355924. weekday
    ##  6     1 Tuesday   307094. weekday
    ##  7     1 Wednesday 340115. weekday
    ##  8     2 Friday    568839  weekday
    ##  9     2 Monday    295431  weekday
    ## 10     2 Saturday  607175  weekend
    ## # … with 25 more rows
…
